\relax 
\providecommand\hyper@newdestlabel[2]{}
\bibcite{book}{1}
\bibcite{kalman_intro}{2}
\bibcite{em_slides}{3}
\bibcite{pf_tutorial}{4}
\bibcite{em_1}{5}
\bibcite{em_2}{6}
\bibcite{cvut}{7}
\bibcite{cvut_2}{8}
\bibcite{projection_1}{9}
\bibcite{projection_2}{10}
\bibcite{exp-filter}{11}
\bibcite{spline}{12}
\bibcite{kalman-proof}{13}
\bibcite{unscented_kalman}{14}
\bibcite{extended_kalman}{15}
\bibcite{extended_kalman2}{16}
\@writefile{toc}{\contentsline {chapter}{Bibliography}{68}{chapter*.47}}
\bibcite{kalman_smoother}{17}
\bibcite{resampling}{18}
\bibcite{resampling_2}{19}
\bibcite{resampling_3}{20}
\bibcite{resample-move}{21}
\bibcite{regularization}{22}
\bibcite{aux_pf}{23}
\bibcite{pso_pf}{24}
\bibcite{multiswarm}{25}
\bibcite{robust-regression}{26}
\bibcite{ar-drone}{27}
\bibcite{forward-chaining}{28}
\bibcite{switching-model}{29}
\bibcite{genetic-em}{30}
\@setckpt{bibliography}{
\setcounter{page}{70}
\setcounter{equation}{0}
\setcounter{enumi}{11}
\setcounter{enumii}{0}
\setcounter{enumiii}{0}
\setcounter{enumiv}{30}
\setcounter{footnote}{0}
\setcounter{mpfootnote}{0}
\setcounter{part}{0}
\setcounter{chapter}{6}
\setcounter{section}{2}
\setcounter{subsection}{0}
\setcounter{subsubsection}{0}
\setcounter{paragraph}{0}
\setcounter{subparagraph}{0}
\setcounter{figure}{0}
\setcounter{table}{0}
\setcounter{parentequation}{0}
\setcounter{float@type}{8}
\setcounter{ALG@line}{13}
\setcounter{ALG@rem}{13}
\setcounter{ALG@nested}{0}
\setcounter{ALG@Lnr}{2}
\setcounter{ALG@blocknr}{10}
\setcounter{ALG@storecount}{0}
\setcounter{ALG@tmpcounter}{0}
\setcounter{algorithm}{3}
\setcounter{lips@count}{0}
\setcounter{Item}{20}
\setcounter{Hfootnote}{7}
\setcounter{bookmark@seq@number}{61}
\setcounter{section@level}{1}
}
