\relax 
\providecommand\hyper@newdestlabel[2]{}
\citation{cvut}
\@writefile{toc}{\contentsline {chapter}{\numberline {3}Application for unmanned aerial vehicles}{22}{chapter.3}}
\@writefile{lof}{\addvspace {10\p@ }}
\@writefile{lot}{\addvspace {10\p@ }}
\newlabel{chap:application}{{3}{22}{Application for unmanned aerial vehicles}{chapter.3}{}}
\@writefile{toc}{\contentsline {section}{\numberline {3.1}Data and tasks}{22}{section.3.1}}
\@writefile{toc}{\contentsline {subsection}{\numberline {3.1.1}Data description}{22}{subsection.3.1.1}}
\citation{cvut}
\@writefile{lof}{\contentsline {figure}{\numberline {3.1}{\ignorespaces The coordinate systems of UAV. Credits: Tom\IeC {\'a}\IeC {\v s} B\IeC {\'a}\IeC {\v c}a.}}{23}{figure.3.1}}
\newlabel{fig:coordinates}{{3.1}{23}{The coordinate systems of UAV. Credits: Tomáš Báča}{figure.3.1}{}}
\@writefile{toc}{\contentsline {subsection}{\numberline {3.1.2}Tasks}{23}{subsection.3.1.2}}
\newlabel{sec:tasks}{{3.1.2}{23}{Tasks}{subsection.3.1.2}{}}
\citation{cvut}
\@writefile{lot}{\contentsline {table}{\numberline {3.1}{\ignorespaces Summary of the required tasks.}}{24}{table.3.1}}
\@writefile{toc}{\contentsline {subsection}{\numberline {3.1.3}Currently used methods}{24}{subsection.3.1.3}}
\@writefile{toc}{\contentsline {section}{\numberline {3.2}Applied methods}{24}{section.3.2}}
\@writefile{lof}{\contentsline {figure}{\numberline {3.2}{\ignorespaces Using exponential filter for speed filtering. The blue line shows the approach considering the pitch, red line is a simple exponential filter.}}{25}{figure.3.2}}
\newlabel{fig:exp-filter}{{3.2}{25}{Using exponential filter for speed filtering. The blue line shows the approach considering the pitch, red line is a simple exponential filter}{figure.3.2}{}}
\@writefile{toc}{\contentsline {subsection}{\numberline {3.2.1}Preprocessing}{25}{subsection.3.2.1}}
\@writefile{toc}{\contentsline {subsubsection}{Missing values}{25}{section*.19}}
\@writefile{toc}{\contentsline {subsubsection}{Scaling}{25}{section*.20}}
\@writefile{toc}{\contentsline {subsection}{\numberline {3.2.2}Dynamic system description}{25}{subsection.3.2.2}}
\newlabel{sec:dynamicsystem-desc}{{3.2.2}{25}{Dynamic system description}{subsection.3.2.2}{}}
\newlabel{eq:pitch}{{3.3}{26}{Dynamic system description}{equation.3.2.3}{}}
\newlabel{eq:xdot}{{3.4}{26}{Dynamic system description}{equation.3.2.4}{}}
\newlabel{eq:x}{{3.5}{26}{Dynamic system description}{equation.3.2.5}{}}
\@writefile{lof}{\contentsline {figure}{\numberline {3.3}{\ignorespaces Kalman filter for position.}}{26}{figure.3.3}}
\newlabel{fig:x-estimate}{{3.3}{26}{Kalman filter for position}{figure.3.3}{}}
\citation{cvut}
\citation{cvut}
\newlabel{eq:extended-model}{{3.11}{27}{Dynamic system description}{equation.3.2.11}{}}
\@writefile{toc}{\contentsline {subsection}{\numberline {3.2.3}Learning parameters by linear regression}{27}{subsection.3.2.3}}
\@writefile{toc}{\contentsline {subsubsection}{Preprocessing by smoothing the data}{27}{section*.21}}
\citation{spline}
\citation{cvut}
\@writefile{lof}{\contentsline {figure}{\numberline {3.4}{\ignorespaces Polynomial fit for the speed ($xdot$) measurement.}}{28}{figure.3.4}}
\newlabel{fig:polyfit-xdot}{{3.4}{28}{Polynomial fit for the speed ($xdot$) measurement}{figure.3.4}{}}
\@writefile{toc}{\contentsline {subsubsection}{Conclusion}{28}{section*.22}}
\@writefile{toc}{\contentsline {subsection}{\numberline {3.2.4}Parameters of the model}{29}{subsection.3.2.4}}
\newlabel{sec:parameters-of-model}{{3.2.4}{29}{Parameters of the model}{subsection.3.2.4}{}}
\@writefile{toc}{\contentsline {subsubsection}{Linear models}{29}{section*.23}}
\@writefile{toc}{\contentsline {subsubsection}{Linear models with penalization}{29}{section*.24}}
\newlabel{eq:penalization-model}{{3.13}{29}{Linear models with penalization}{equation.3.2.13}{}}
\citation{em_2}
\@writefile{toc}{\contentsline {subsubsection}{Nonlinear extension}{30}{section*.25}}
\@writefile{toc}{\contentsline {subsection}{\numberline {3.2.5}Noise models}{30}{subsection.3.2.5}}
\@writefile{lof}{\contentsline {figure}{\numberline {3.5}{\ignorespaces Measurement error histogram of $xdot$ regarding to the best filtering estimate of true state.}}{31}{figure.3.5}}
\newlabel{fig:noise-xdot}{{3.5}{31}{Measurement error histogram of $xdot$ regarding to the best filtering estimate of true state}{figure.3.5}{}}
\@writefile{lof}{\contentsline {figure}{\numberline {3.6}{\ignorespaces Measurement error histogram of $pitch$ regarding to the best filtering estimate of true state.}}{31}{figure.3.6}}
\newlabel{fig:noise-pitch}{{3.6}{31}{Measurement error histogram of $pitch$ regarding to the best filtering estimate of true state}{figure.3.6}{}}
\@writefile{toc}{\contentsline {subsection}{\numberline {3.2.6}Filter, smoother and EM algorithm}{31}{subsection.3.2.6}}
\citation{forward-chaining}
\@writefile{toc}{\contentsline {section}{\numberline {3.3}Experiments}{32}{section.3.3}}
\newlabel{sec:experiments}{{3.3}{32}{Experiments}{section.3.3}{}}
\@writefile{toc}{\contentsline {subsection}{\numberline {3.3.1}Evaluation methods}{32}{subsection.3.3.1}}
\@writefile{toc}{\contentsline {subsubsection}{Introduction}{32}{section*.26}}
\@writefile{toc}{\contentsline {subsubsection}{Summary of the used evaluation methods}{32}{section*.27}}
\@writefile{lof}{\contentsline {figure}{\numberline {3.7}{\ignorespaces Demonstration of a model that predicts well at the beginning, but gets lost after a few hundreds of time steps. Model learnt by $B5$ was used with $p_3$ changed to $1.005$. A similar scenario happens, for instance, for models of Experiment $A$ if $p_3$ is not manually set lower. Therefore, this parameter is set to $0.997$ for the most models.}}{33}{figure.3.7}}
\newlabel{fig:lost-model}{{3.7}{33}{Demonstration of a model that predicts well at the beginning, but gets lost after a few hundreds of time steps. Model learnt by $B5$ was used with $p_3$ changed to $1.005$. A similar scenario happens, for instance, for models of Experiment $A$ if $p_3$ is not manually set lower. Therefore, this parameter is set to $0.997$ for the most models}{figure.3.7}{}}
\@writefile{toc}{\contentsline {subsection}{\numberline {3.3.2}Validation parameters}{34}{subsection.3.3.2}}
\newlabel{sec:validation-parameters}{{3.3.2}{34}{Validation parameters}{subsection.3.3.2}{}}
\@writefile{toc}{\contentsline {subsubsection}{Training size}{34}{section*.28}}
\@writefile{lof}{\contentsline {figure}{\numberline {3.8}{\ignorespaces Learning curve of various methods. Prediction error of $pitch$ depending on train size. Models with penalization terms do not learn with less than 1000 data records.}}{34}{figure.3.8}}
\newlabel{fig:learning-curve-pitch}{{3.8}{34}{Learning curve of various methods. Prediction error of $pitch$ depending on train size. Models with penalization terms do not learn with less than 1000 data records}{figure.3.8}{}}
\@writefile{lof}{\contentsline {figure}{\numberline {3.9}{\ignorespaces Learning curve of various methods. Prediction error of $xdot$ depending on train size. Models with penalization terms do not learn with less than 1000 data records.}}{35}{figure.3.9}}
\newlabel{fig:learning-curve-xdot}{{3.9}{35}{Learning curve of various methods. Prediction error of $xdot$ depending on train size. Models with penalization terms do not learn with less than 1000 data records}{figure.3.9}{}}
\@writefile{toc}{\contentsline {subsubsection}{Validation set distance}{35}{section*.29}}
\@writefile{lof}{\contentsline {figure}{\numberline {3.10}{\ignorespaces Prediction error of $pitch$ depending on distance from train set (models $A2,$ $B5$, $C2$ and $C3$).}}{36}{figure.3.10}}
\newlabel{fig:distance-pitch}{{3.10}{36}{Prediction error of $pitch$ depending on distance from train set (models $A2,$ $B5$, $C2$ and $C3$)}{figure.3.10}{}}
\@writefile{lof}{\contentsline {figure}{\numberline {3.11}{\ignorespaces Prediction error of $xdot$ depending on distance from train set (models $A2$, $B5$, $C2$ and $C3$). Penalization models are more stable. }}{36}{figure.3.11}}
\newlabel{fig:distance-xdot}{{3.11}{36}{Prediction error of $xdot$ depending on distance from train set (models $A2$, $B5$, $C2$ and $C3$). Penalization models are more stable}{figure.3.11}{}}
\@writefile{toc}{\contentsline {subsection}{\numberline {3.3.3}Experiment $A$ - linear regression learning}{36}{subsection.3.3.3}}
\newlabel{sec:experiment-a}{{3.3.3}{36}{Experiment $A$ - linear regression learning}{subsection.3.3.3}{}}
\citation{robust-regression}
\@writefile{lot}{\contentsline {table}{\numberline {3.2}{\ignorespaces Summary of the Experiment $A$.}}{37}{table.3.2}}
\newlabel{tab:experiments-1}{{3.2}{37}{Summary of the Experiment $A$}{table.3.2}{}}
\@writefile{lof}{\contentsline {figure}{\numberline {3.12}{\ignorespaces Filtering results of $pitch$ for methods in Experiment $A$.}}{37}{figure.3.12}}
\@writefile{lof}{\contentsline {figure}{\numberline {3.13}{\ignorespaces Prediction results of $pitch$ for methods in Experiment $A$.}}{38}{figure.3.13}}
\@writefile{lof}{\contentsline {figure}{\numberline {3.14}{\ignorespaces Filtering results of $xdot$ for methods in Experiment $A$.}}{38}{figure.3.14}}
\@writefile{lof}{\contentsline {figure}{\numberline {3.15}{\ignorespaces Prediction results of $xdot$ for methods in Experiment $A$.}}{39}{figure.3.15}}
\@writefile{toc}{\contentsline {subsection}{\numberline {3.3.4}Experiment $B$ - EM algorithm}{39}{subsection.3.3.4}}
\newlabel{sec:experiment-b}{{3.3.4}{39}{Experiment $B$ - EM algorithm}{subsection.3.3.4}{}}
\@writefile{lof}{\contentsline {figure}{\numberline {3.16}{\ignorespaces Filtering results of $pitch$ for methods in Experiment $B$.}}{40}{figure.3.16}}
\@writefile{lof}{\contentsline {figure}{\numberline {3.17}{\ignorespaces Prediction results of $pitch$ for methods in Experiment $B$.}}{40}{figure.3.17}}
\@writefile{lot}{\contentsline {table}{\numberline {3.3}{\ignorespaces Summary of the Experiment $B$}}{41}{table.3.3}}
\newlabel{tab:experiments-b}{{3.3}{41}{Summary of the Experiment $B$}{table.3.3}{}}
\@writefile{lof}{\contentsline {figure}{\numberline {3.18}{\ignorespaces Filtering results of $xdot$ for methods in Experiment $B$.}}{41}{figure.3.18}}
\newlabel{fig:xdot-filtering-b}{{3.18}{41}{Filtering results of $xdot$ for methods in Experiment $B$}{figure.3.18}{}}
\@writefile{lof}{\contentsline {figure}{\numberline {3.19}{\ignorespaces Prediction results of $xdot$ for methods in Experiment $B$.}}{41}{figure.3.19}}
\@writefile{toc}{\contentsline {subsection}{\numberline {3.3.5}Experiment $C$ - extended model with EM algorithm}{41}{subsection.3.3.5}}
\newlabel{sec:experiment-c}{{3.3.5}{41}{Experiment $C$ - extended model with EM algorithm}{subsection.3.3.5}{}}
\@writefile{lot}{\contentsline {table}{\numberline {3.4}{\ignorespaces Summary of the Experiment $C$}}{42}{table.3.4}}
\newlabel{tab:experiments-c}{{3.4}{42}{Summary of the Experiment $C$}{table.3.4}{}}
\@writefile{lof}{\contentsline {figure}{\numberline {3.20}{\ignorespaces Filtering results of $pitch$ for methods in Experiment $C$.}}{42}{figure.3.20}}
\@writefile{lof}{\contentsline {figure}{\numberline {3.21}{\ignorespaces Prediction results of $pitch$ for methods in Experiment $C$.}}{43}{figure.3.21}}
\@writefile{lof}{\contentsline {figure}{\numberline {3.22}{\ignorespaces Filtering results of $xdot$ for methods in Experiment $C$.}}{43}{figure.3.22}}
\@writefile{lof}{\contentsline {figure}{\numberline {3.23}{\ignorespaces Prediction results of $xdot$ for methods in Experiment $C$.}}{43}{figure.3.23}}
\@writefile{toc}{\contentsline {subsection}{\numberline {3.3.6}Experiment $D$ - Particle filter}{44}{subsection.3.3.6}}
\newlabel{sec:experiment-d}{{3.3.6}{44}{Experiment $D$ - Particle filter}{subsection.3.3.6}{}}
\@writefile{lof}{\contentsline {figure}{\numberline {3.24}{\ignorespaces Particle filter compared to $C3$ (using same model) in $pitch$ filtering.}}{44}{figure.3.24}}
\@writefile{lof}{\contentsline {figure}{\numberline {3.25}{\ignorespaces Particle filter compared to $C3$ (using same model) in $pitch$ prediction.}}{44}{figure.3.25}}
\@writefile{lof}{\contentsline {figure}{\numberline {3.26}{\ignorespaces Particle filter compared to $C3$ (using same model) in $xdot$ filtering.}}{45}{figure.3.26}}
\@writefile{lof}{\contentsline {figure}{\numberline {3.27}{\ignorespaces Particle filter compared to $C3$ (using same model) in $xdot$ prediction.}}{45}{figure.3.27}}
\@writefile{toc}{\contentsline {subsection}{\numberline {3.3.7}Final evaluation}{45}{subsection.3.3.7}}
\@writefile{lot}{\contentsline {table}{\numberline {3.5}{\ignorespaces Prediction error results of flights 1, 2 and 4 for the best methods including Particle filter (PF).}}{46}{table.3.5}}
\newlabel{tab:final-evaluation}{{3.5}{46}{Prediction error results of flights 1, 2 and 4 for the best methods including Particle filter (PF)}{table.3.5}{}}
\@writefile{lof}{\contentsline {figure}{\numberline {3.28}{\ignorespaces Prediction of $pitch$ on unseen data from flight 1.}}{46}{figure.3.28}}
\@writefile{lof}{\contentsline {figure}{\numberline {3.29}{\ignorespaces Prediction of $xdot$ on the unseen data from flight 1.}}{46}{figure.3.29}}
\@writefile{lot}{\contentsline {table}{\numberline {3.6}{\ignorespaces Comparison of the prediction results using scaled and original data.}}{47}{table.3.6}}
\newlabel{tab:scaling}{{3.6}{47}{Comparison of the prediction results using scaled and original data}{table.3.6}{}}
\@writefile{toc}{\contentsline {subsection}{\numberline {3.3.8}Other experiments}{47}{subsection.3.3.8}}
\newlabel{sec:failed-experiments}{{3.3.8}{47}{Other experiments}{subsection.3.3.8}{}}
\@writefile{toc}{\contentsline {subsubsection}{Scaling}{47}{section*.30}}
\@writefile{toc}{\contentsline {subsubsection}{Estimating $\kappa $ parameters}{47}{section*.31}}
\@writefile{toc}{\contentsline {subsubsection}{Measurement offset}{47}{section*.32}}
\@writefile{toc}{\contentsline {subsubsection}{Adding random noise to particles}{47}{section*.33}}
\@writefile{toc}{\contentsline {subsubsection}{Mixture of Gaussians model}{47}{section*.34}}
\@writefile{toc}{\contentsline {subsubsection}{Higher order Markovian system}{48}{section*.35}}
\@writefile{toc}{\contentsline {section}{\numberline {3.4}Conclusion}{48}{section.3.4}}
\newlabel{sec:application-conclusion}{{3.4}{48}{Conclusion}{section.3.4}{}}
\@writefile{toc}{\contentsline {subsubsection}{Best models description}{48}{section*.36}}
\newlabel{eq:final-a}{{3.19}{48}{Best models description}{equation.3.4.19}{}}
\newlabel{eq:extended-model}{{3.20}{48}{Best models description}{equation.3.4.20}{}}
\@writefile{toc}{\contentsline {subsubsection}{Summary}{49}{section*.37}}
\@setckpt{chap2}{
\setcounter{page}{50}
\setcounter{equation}{24}
\setcounter{enumi}{7}
\setcounter{enumii}{0}
\setcounter{enumiii}{0}
\setcounter{enumiv}{0}
\setcounter{footnote}{3}
\setcounter{mpfootnote}{0}
\setcounter{part}{0}
\setcounter{chapter}{3}
\setcounter{section}{4}
\setcounter{subsection}{0}
\setcounter{subsubsection}{0}
\setcounter{paragraph}{0}
\setcounter{subparagraph}{0}
\setcounter{figure}{29}
\setcounter{table}{6}
\setcounter{parentequation}{0}
\setcounter{float@type}{8}
\setcounter{ALG@line}{13}
\setcounter{ALG@rem}{13}
\setcounter{ALG@nested}{0}
\setcounter{ALG@Lnr}{2}
\setcounter{ALG@blocknr}{10}
\setcounter{ALG@storecount}{0}
\setcounter{ALG@tmpcounter}{0}
\setcounter{algorithm}{3}
\setcounter{lips@count}{0}
\setcounter{Item}{9}
\setcounter{Hfootnote}{6}
\setcounter{bookmark@seq@number}{44}
\setcounter{section@level}{3}
}
