\relax 
\providecommand\hyper@newdestlabel[2]{}
\@writefile{toc}{\contentsline {chapter}{\numberline {5}Implementation}{61}{chapter.5}}
\@writefile{lof}{\addvspace {10\p@ }}
\@writefile{lot}{\addvspace {10\p@ }}
\newlabel{chap:implementation}{{5}{61}{Implementation}{chapter.5}{}}
\@writefile{toc}{\contentsline {section}{\numberline {5.1}Kalman filter}{61}{section.5.1}}
\@writefile{toc}{\contentsline {section}{\numberline {5.2}EM algorithm}{61}{section.5.2}}
\@writefile{toc}{\contentsline {section}{\numberline {5.3}Particle filter}{62}{section.5.3}}
\@writefile{toc}{\contentsline {subsubsection}{Filter and smoother}{62}{section*.41}}
\@writefile{toc}{\contentsline {subsubsection}{Asynchronous filter}{63}{section*.42}}
\@writefile{toc}{\contentsline {subsubsection}{Examples}{63}{section*.43}}
\@writefile{toc}{\contentsline {subsubsection}{Measurement models}{64}{section*.44}}
\@writefile{toc}{\contentsline {section}{\numberline {5.4}Evaluation}{64}{section.5.4}}
\@writefile{toc}{\contentsline {section}{\numberline {5.5}List of scripts}{65}{section.5.5}}
\newlabel{sec:list-of-scripts}{{5.5}{65}{List of scripts}{section.5.5}{}}
\@setckpt{chap4}{
\setcounter{page}{66}
\setcounter{equation}{1}
\setcounter{enumi}{11}
\setcounter{enumii}{0}
\setcounter{enumiii}{0}
\setcounter{enumiv}{0}
\setcounter{footnote}{0}
\setcounter{mpfootnote}{0}
\setcounter{part}{0}
\setcounter{chapter}{5}
\setcounter{section}{5}
\setcounter{subsection}{0}
\setcounter{subsubsection}{0}
\setcounter{paragraph}{0}
\setcounter{subparagraph}{0}
\setcounter{figure}{0}
\setcounter{table}{0}
\setcounter{parentequation}{0}
\setcounter{float@type}{8}
\setcounter{ALG@line}{13}
\setcounter{ALG@rem}{13}
\setcounter{ALG@nested}{0}
\setcounter{ALG@Lnr}{2}
\setcounter{ALG@blocknr}{10}
\setcounter{ALG@storecount}{0}
\setcounter{ALG@tmpcounter}{0}
\setcounter{algorithm}{3}
\setcounter{lips@count}{0}
\setcounter{Item}{20}
\setcounter{Hfootnote}{7}
\setcounter{bookmark@seq@number}{57}
\setcounter{section@level}{1}
}
