\relax 
\providecommand\hyper@newdestlabel[2]{}
\@writefile{toc}{\contentsline {chapter}{\numberline {2}Theoretical background}{5}{chapter.2}}
\@writefile{lof}{\addvspace {10\p@ }}
\@writefile{lot}{\addvspace {10\p@ }}
\newlabel{chap:theory}{{2}{5}{Theoretical background}{chapter.2}{}}
\@writefile{toc}{\contentsline {section}{\numberline {2.1}Problem definition and notations}{5}{section.2.1}}
\@writefile{toc}{\contentsline {subsection}{\numberline {2.1.1}Notation remarks}{5}{subsection.2.1.1}}
\@writefile{toc}{\contentsline {subsection}{\numberline {2.1.2}Dynamic systems description}{5}{subsection.2.1.2}}
\newlabel{eq:markov-property}{{2.1}{5}{Dynamic systems description}{equation.2.1.1}{}}
\@writefile{lof}{\contentsline {figure}{\numberline {2.1}{\ignorespaces Dynamic system viewed as a Hidden Markov Model.}}{6}{figure.2.1}}
\@writefile{toc}{\contentsline {subsection}{\numberline {2.1.3}The tasks}{6}{subsection.2.1.3}}
\citation{kalman-proof}
\citation{extended_kalman}
\citation{extended_kalman2}
\citation{unscented_kalman}
\citation{pf_tutorial}
\citation{pf_tutorial}
\citation{pf_tutorial}
\@writefile{toc}{\contentsline {subsection}{\numberline {2.1.4}Filtering methods overview}{7}{subsection.2.1.4}}
\@writefile{toc}{\contentsline {subsubsection}{Kalman filter}{7}{section*.2}}
\@writefile{toc}{\contentsline {subsubsection}{Extended Kalman filter and Unscented Kalman filter}{7}{section*.3}}
\@writefile{toc}{\contentsline {subsubsection}{Grid-based methods}{7}{section*.4}}
\@writefile{toc}{\contentsline {subsubsection}{Particle filters}{8}{section*.5}}
\@writefile{toc}{\contentsline {section}{\numberline {2.2}Kalman filter}{8}{section.2.2}}
\@writefile{toc}{\contentsline {subsection}{\numberline {2.2.1}Definition}{8}{subsection.2.2.1}}
\newlabel{eq:state_transition_model}{{2.4}{8}{Definition}{equation.2.2.4}{}}
\newlabel{eq:measurement_model}{{2.5}{8}{Definition}{equation.2.2.5}{}}
\@writefile{toc}{\contentsline {subsection}{\numberline {2.2.2}Algorithm}{8}{subsection.2.2.2}}
\newlabel{sec:kalman-alg}{{2.2.2}{8}{Algorithm}{subsection.2.2.2}{}}
\citation{kalman_intro}
\citation{kalman_smoother}
\newlabel{eq:kalman-prediction-step-x}{{2.7}{9}{Algorithm}{equation.2.2.7}{}}
\newlabel{eq:kalman-prediction-step-P}{{2.8}{9}{Algorithm}{equation.2.2.8}{}}
\newlabel{eq:kalman-correction-x}{{2.9}{9}{Algorithm}{equation.2.2.9}{}}
\newlabel{eq:kalman-correction-P}{{2.10}{9}{Algorithm}{equation.2.2.10}{}}
\newlabel{eq:kalman-k}{{2.11}{9}{Algorithm}{equation.2.2.11}{}}
\@writefile{loa}{\contentsline {algorithm}{\numberline {1}{\ignorespaces }}{9}{algorithm.1}}
\newlabel{alg:kalman}{{1}{9}{Algorithm}{algorithm.1}{}}
\@writefile{toc}{\contentsline {subsection}{\numberline {2.2.3}Kalman smoother}{9}{subsection.2.2.3}}
\newlabel{sec:kalman-smoother-alg}{{2.2.3}{9}{Kalman smoother}{subsection.2.2.3}{}}
\citation{em_slides}
\citation{em_1}
\@writefile{toc}{\contentsline {subsection}{\numberline {2.2.4}EM Algorithm}{10}{subsection.2.2.4}}
\newlabel{sec:kalman-em}{{2.2.4}{10}{EM Algorithm}{subsection.2.2.4}{}}
\@writefile{toc}{\contentsline {subsubsection}{Likelihood}{10}{section*.6}}
\@writefile{toc}{\contentsline {subsubsection}{Log-likelihood for Kalman filter}{11}{section*.7}}
\newlabel{sec:ll-kalman}{{2.2.4}{11}{Log-likelihood for Kalman filter}{section*.7}{}}
\newlabel{eq:ll-sums}{{2.19}{11}{Log-likelihood for Kalman filter}{equation.2.2.19}{}}
\newlabel{eq:ll-final}{{2.24}{12}{Log-likelihood for Kalman filter}{equation.2.2.24}{}}
\@writefile{toc}{\contentsline {subsubsection}{Maximizing of the log-likelihood}{12}{section*.8}}
\newlabel{sec:kalman-max-ll}{{2.2.4}{12}{Maximizing of the log-likelihood}{section*.8}{}}
\newlabel{eq:max-a}{{2.31}{12}{Maximizing of the log-likelihood}{equation.2.2.31}{}}
\citation{em_slides}
\newlabel{eq:max-h}{{2.33}{13}{Maximizing of the log-likelihood}{equation.2.2.33}{}}
\newlabel{eq:derivative-rule}{{2.34}{13}{Maximizing of the log-likelihood}{equation.2.2.34}{}}
\newlabel{eq:max-q}{{2.35}{13}{Maximizing of the log-likelihood}{equation.2.2.35}{}}
\newlabel{eq:max-r}{{2.36}{13}{Maximizing of the log-likelihood}{equation.2.2.36}{}}
\@writefile{toc}{\contentsline {subsubsection}{Expected likelihood}{13}{section*.9}}
\newlabel{sec:kalman-exp-ll}{{2.2.4}{13}{Expected likelihood}{section*.9}{}}
\newlabel{eq:expected-x}{{2.37}{13}{Expected likelihood}{equation.2.2.37}{}}
\newlabel{eq:expected-xx}{{2.40}{13}{Expected likelihood}{equation.2.2.40}{}}
\newlabel{eq:expected-xtxtt}{{2.41}{13}{Expected likelihood}{equation.2.2.41}{}}
\newlabel{eq:expected-xttxt}{{2.42}{13}{Expected likelihood}{equation.2.2.42}{}}
\citation{pf_tutorial}
\@writefile{toc}{\contentsline {subsubsection}{Algorithm}{14}{section*.10}}
\@writefile{toc}{\contentsline {section}{\numberline {2.3}Particle filter}{14}{section.2.3}}
\newlabel{sec:particle-filter}{{2.3}{14}{Particle filter}{section.2.3}{}}
\@writefile{toc}{\contentsline {subsection}{\numberline {2.3.1}Introduction}{14}{subsection.2.3.1}}
\@writefile{toc}{\contentsline {subsection}{\numberline {2.3.2}General algorithm derivation \cite  {pf_tutorial}}{14}{subsection.2.3.2}}
\newlabel{eq:importance-density}{{2.43}{14}{General algorithm derivation \cite {pf_tutorial}}{equation.2.3.43}{}}
\newlabel{eq:weights}{{2.45}{15}{General algorithm derivation \cite {pf_tutorial}}{equation.2.3.45}{}}
\newlabel{eq-pf-weights}{{2.54}{15}{General algorithm derivation \cite {pf_tutorial}}{equation.2.3.54}{}}
\citation{pf_tutorial}
\citation{resampling_3}
\citation{resampling_2}
\citation{resampling}
\@writefile{loa}{\contentsline {algorithm}{\numberline {2}{\ignorespaces }}{16}{algorithm.2}}
\newlabel{alg:sis-pf}{{2}{16}{General algorithm derivation \cite {pf_tutorial}}{algorithm.2}{}}
\@writefile{toc}{\contentsline {subsection}{\numberline {2.3.3}Resampling}{16}{subsection.2.3.3}}
\@writefile{toc}{\contentsline {subsubsection}{Definition}{16}{section*.11}}
\@writefile{toc}{\contentsline {subsubsection}{Algorithm}{16}{section*.12}}
\newlabel{sec:pf-alg}{{2.3.3}{16}{Algorithm}{section*.12}{}}
\citation{resample-move}
\citation{regularization}
\citation{pf_tutorial}
\@writefile{loa}{\contentsline {algorithm}{\numberline {3}{\ignorespaces }}{17}{algorithm.3}}
\newlabel{alg:resampling}{{3}{17}{Algorithm}{algorithm.3}{}}
\@writefile{toc}{\contentsline {subsubsection}{When to resample}{17}{section*.13}}
\@writefile{toc}{\contentsline {subsubsection}{Sample impoverishment}{17}{section*.14}}
\@writefile{toc}{\contentsline {subsection}{\numberline {2.3.4}SIR Particle filter}{17}{subsection.2.3.4}}
\citation{pf_tutorial}
\citation{aux_pf}
\citation{pso_pf}
\citation{multiswarm}
\@writefile{toc}{\contentsline {subsection}{\numberline {2.3.5}Alternative methods}{18}{subsection.2.3.5}}
\@writefile{toc}{\contentsline {subsection}{\numberline {2.3.6}Particle smoother}{18}{subsection.2.3.6}}
\newlabel{sec:pf-smoother-alg}{{2.3.6}{18}{Particle smoother}{subsection.2.3.6}{}}
\citation{em_1}
\citation{em_1}
\citation{em_2}
\@writefile{toc}{\contentsline {subsection}{\numberline {2.3.7}EM Algorithm}{19}{subsection.2.3.7}}
\newlabel{sec:em-pf}{{2.3.7}{19}{EM Algorithm}{subsection.2.3.7}{}}
\@writefile{toc}{\contentsline {subsubsection}{Likelihood and its expectation}{19}{section*.15}}
\newlabel{eq:likelihood-expectation}{{2.3.7}{19}{Likelihood and its expectation}{section*.15}{}}
\newlabel{eq-expected1}{{2.64}{19}{Likelihood and its expectation}{equation.2.3.64}{}}
\newlabel{eq-expected2}{{2.65}{19}{Likelihood and its expectation}{equation.2.3.65}{}}
\@writefile{toc}{\contentsline {subsubsection}{Nonlinear models}{20}{section*.16}}
\newlabel{sec:modeling}{{2.3.7}{20}{Nonlinear models}{section*.16}{}}
\newlabel{eq:measurement-likelihood}{{2.70}{20}{Nonlinear models}{equation.2.3.70}{}}
\@writefile{toc}{\contentsline {subsubsection}{Maximizing the mixture of Gaussians measurement model}{20}{section*.17}}
\@writefile{toc}{\contentsline {subsubsection}{Algorithm overview}{21}{section*.18}}
\@setckpt{chap1}{
\setcounter{page}{22}
\setcounter{equation}{73}
\setcounter{enumi}{2}
\setcounter{enumii}{0}
\setcounter{enumiii}{0}
\setcounter{enumiv}{0}
\setcounter{footnote}{3}
\setcounter{mpfootnote}{0}
\setcounter{part}{0}
\setcounter{chapter}{2}
\setcounter{section}{3}
\setcounter{subsection}{7}
\setcounter{subsubsection}{0}
\setcounter{paragraph}{0}
\setcounter{subparagraph}{0}
\setcounter{figure}{1}
\setcounter{table}{0}
\setcounter{parentequation}{0}
\setcounter{float@type}{8}
\setcounter{ALG@line}{13}
\setcounter{ALG@rem}{13}
\setcounter{ALG@nested}{0}
\setcounter{ALG@Lnr}{2}
\setcounter{ALG@blocknr}{10}
\setcounter{ALG@storecount}{0}
\setcounter{ALG@tmpcounter}{0}
\setcounter{algorithm}{3}
\setcounter{lips@count}{0}
\setcounter{Item}{2}
\setcounter{Hfootnote}{3}
\setcounter{bookmark@seq@number}{22}
\setcounter{section@level}{3}
}
