\relax 
\providecommand\hyper@newdestlabel[2]{}
\@writefile{toc}{\contentsline {chapter}{\numberline {4}Other datasets}{50}{chapter.4}}
\@writefile{lof}{\addvspace {10\p@ }}
\@writefile{lot}{\addvspace {10\p@ }}
\newlabel{chap:other}{{4}{50}{Other datasets}{chapter.4}{}}
\@writefile{toc}{\contentsline {section}{\numberline {4.1}Vicon data}{50}{section.4.1}}
\newlabel{sec:vicon}{{4.1}{50}{Vicon data}{section.4.1}{}}
\@writefile{lof}{\contentsline {figure}{\numberline {4.1}{\ignorespaces Real distances of drones and the estimates in time.}}{51}{figure.4.1}}
\@writefile{lof}{\contentsline {figure}{\numberline {4.2}{\ignorespaces Histograms of distance errors for each drone.}}{52}{figure.4.2}}
\@writefile{toc}{\contentsline {section}{\numberline {4.2}Ground robots}{52}{section.4.2}}
\newlabel{sec:ground-robot}{{4.2}{52}{Ground robots}{section.4.2}{}}
\@writefile{toc}{\contentsline {subsection}{\numberline {4.2.1}Problem description}{52}{subsection.4.2.1}}
\citation{projection_1}
\citation{projection_2}
\newlabel{eq:ground-transition}{{4.1}{53}{Problem description}{equation.4.2.1}{}}
\@writefile{toc}{\contentsline {subsection}{\numberline {4.2.2}Data analysis}{53}{subsection.4.2.2}}
\@writefile{toc}{\contentsline {subsubsection}{GPS}{53}{section*.38}}
\@writefile{toc}{\contentsline {subsubsection}{Compass}{53}{section*.39}}
\@writefile{lof}{\contentsline {figure}{\numberline {4.3}{\ignorespaces Real trajectory in 2D with measurements of GPS. The beginning of the trajectory is not plotted as there is no GPS measurement available.}}{54}{figure.4.3}}
\newlabel{fig:ground-position}{{4.3}{54}{Real trajectory in 2D with measurements of GPS. The beginning of the trajectory is not plotted as there is no GPS measurement available}{figure.4.3}{}}
\@writefile{toc}{\contentsline {subsubsection}{Transition model}{54}{section*.40}}
\@writefile{lof}{\contentsline {figure}{\numberline {4.4}{\ignorespaces GPS distance error in time with its expected accuracy (given as radius of expected position). We see it does not correlate with the real error.}}{55}{figure.4.4}}
\newlabel{fig:gps-err}{{4.4}{55}{GPS distance error in time with its expected accuracy (given as radius of expected position). We see it does not correlate with the real error}{figure.4.4}{}}
\@writefile{toc}{\contentsline {subsection}{\numberline {4.2.3}Asynchronous measurements}{55}{subsection.4.2.3}}
\@writefile{lof}{\contentsline {figure}{\numberline {4.5}{\ignorespaces Histograms of the GPS error.}}{56}{figure.4.5}}
\newlabel{fig:gps-hist}{{4.5}{56}{Histograms of the GPS error}{figure.4.5}{}}
\@writefile{toc}{\contentsline {subsection}{\numberline {4.2.4}Results}{56}{subsection.4.2.4}}
\@writefile{lof}{\contentsline {figure}{\numberline {4.6}{\ignorespaces Compass values and real orientation in time. The values are in radians, values between $0$ and $2$ were moved to $[2\pi , 2\pi + 2]$}}{57}{figure.4.6}}
\newlabel{fig:compass}{{4.6}{57}{Compass values and real orientation in time. The values are in radians, values between $0$ and $2$ were moved to $[2\pi , 2\pi + 2]$}{figure.4.6}{}}
\@writefile{lof}{\contentsline {figure}{\numberline {4.7}{\ignorespaces Histogram of compass error. The error is signed, positive error means greater measurement than real value.}}{58}{figure.4.7}}
\newlabel{fig:compass-hist}{{4.7}{58}{Histogram of compass error. The error is signed, positive error means greater measurement than real value}{figure.4.7}{}}
\@writefile{lof}{\contentsline {figure}{\numberline {4.8}{\ignorespaces Histograms of the transition model error.}}{59}{figure.4.8}}
\newlabel{fig:transition-hist}{{4.8}{59}{Histograms of the transition model error}{figure.4.8}{}}
\@writefile{lof}{\contentsline {figure}{\numberline {4.9}{\ignorespaces The best filtering performance of our methods, 2D trajectory.}}{60}{figure.4.9}}
\newlabel{fig:ground-performance}{{4.9}{60}{The best filtering performance of our methods, 2D trajectory}{figure.4.9}{}}
\@setckpt{chap3}{
\setcounter{page}{61}
\setcounter{equation}{1}
\setcounter{enumi}{7}
\setcounter{enumii}{0}
\setcounter{enumiii}{0}
\setcounter{enumiv}{0}
\setcounter{footnote}{1}
\setcounter{mpfootnote}{0}
\setcounter{part}{0}
\setcounter{chapter}{4}
\setcounter{section}{2}
\setcounter{subsection}{4}
\setcounter{subsubsection}{0}
\setcounter{paragraph}{0}
\setcounter{subparagraph}{0}
\setcounter{figure}{9}
\setcounter{table}{0}
\setcounter{parentequation}{0}
\setcounter{float@type}{8}
\setcounter{ALG@line}{13}
\setcounter{ALG@rem}{13}
\setcounter{ALG@nested}{0}
\setcounter{ALG@Lnr}{2}
\setcounter{ALG@blocknr}{10}
\setcounter{ALG@storecount}{0}
\setcounter{ALG@tmpcounter}{0}
\setcounter{algorithm}{3}
\setcounter{lips@count}{0}
\setcounter{Item}{9}
\setcounter{Hfootnote}{7}
\setcounter{bookmark@seq@number}{51}
\setcounter{section@level}{2}
}
