\relax 
\providecommand\hyper@newdestlabel[2]{}
\@writefile{toc}{\contentsline {chapter}{\numberline {6}Conclusion}{66}{chapter.6}}
\@writefile{lof}{\addvspace {10\p@ }}
\@writefile{lot}{\addvspace {10\p@ }}
\@writefile{toc}{\contentsline {section}{\numberline {6.1}Summary}{66}{section.6.1}}
\@writefile{toc}{\contentsline {subsubsection}{UAV application}{66}{section*.45}}
\@writefile{toc}{\contentsline {subsubsection}{Ground robot dataset}{66}{section*.46}}
\@writefile{toc}{\contentsline {section}{\numberline {6.2}Future work}{66}{section.6.2}}
\citation{switching-model}
\citation{genetic-em}
\@setckpt{epilog}{
\setcounter{page}{68}
\setcounter{equation}{0}
\setcounter{enumi}{11}
\setcounter{enumii}{0}
\setcounter{enumiii}{0}
\setcounter{enumiv}{0}
\setcounter{footnote}{0}
\setcounter{mpfootnote}{0}
\setcounter{part}{0}
\setcounter{chapter}{6}
\setcounter{section}{2}
\setcounter{subsection}{0}
\setcounter{subsubsection}{0}
\setcounter{paragraph}{0}
\setcounter{subparagraph}{0}
\setcounter{figure}{0}
\setcounter{table}{0}
\setcounter{parentequation}{0}
\setcounter{float@type}{8}
\setcounter{ALG@line}{13}
\setcounter{ALG@rem}{13}
\setcounter{ALG@nested}{0}
\setcounter{ALG@Lnr}{2}
\setcounter{ALG@blocknr}{10}
\setcounter{ALG@storecount}{0}
\setcounter{ALG@tmpcounter}{0}
\setcounter{algorithm}{3}
\setcounter{lips@count}{0}
\setcounter{Item}{20}
\setcounter{Hfootnote}{7}
\setcounter{bookmark@seq@number}{60}
\setcounter{section@level}{1}
}
